<?xml version="1.0" encoding="UTF-8" standalone="no"?>
<!-- Generator: Adobe Illustrator 21.1.0, SVG Export Plug-In . SVG Version: 6.00 Build 0)  -->

<svg
   xmlns:dc="http://purl.org/dc/elements/1.1/"
   xmlns:cc="http://creativecommons.org/ns#"
   xmlns:rdf="http://www.w3.org/1999/02/22-rdf-syntax-ns#"
   xmlns:svg="http://www.w3.org/2000/svg"
   xmlns="http://www.w3.org/2000/svg"
   xmlns:xlink="http://www.w3.org/1999/xlink"
   xmlns:sodipodi="http://sodipodi.sourceforge.net/DTD/sodipodi-0.dtd"
   xmlns:inkscape="http://www.inkscape.org/namespaces/inkscape"
   version="1.1"
   id="Camada_1"
   x="0px"
   y="0px"
   viewBox="0 0 188.97638 90.708663"
   xml:space="preserve"
   sodipodi:docname="atelier.svg"
   inkscape:version="0.92.3 (2405546, 2018-03-11)"
   width="50mm"
   height="24mm"><metadata
     id="metadata333"><rdf:RDF><cc:Work
         rdf:about=""><dc:format>image/svg+xml</dc:format><dc:type
           rdf:resource="http://purl.org/dc/dcmitype/StillImage" /><dc:title></dc:title></cc:Work></rdf:RDF></metadata><defs
     id="defs331"><radialGradient
       gradientTransform="matrix(0.9397,0,0,0.9397,4.2153,4.1331)"
       gradientUnits="userSpaceOnUse"
       id="XMLID_27_"
       r="66.164497"
       cy="58.0625"
       cx="76.764198"><stop
         id="stop107"
         offset="0"
         style="stop-color:#ffffff;stop-opacity:1" /><stop
         id="stop109"
         offset="0.32780001"
         style="stop-color:#fdfdfc;stop-opacity:1" /><stop
         id="stop111"
         offset="0.6773591"
         style="stop-color:#f4f5f4;stop-opacity:1" /><stop
         id="stop113"
         offset="1"
         style="stop-color:#cacfd0;stop-opacity:1" /></radialGradient><radialGradient
       gradientTransform="matrix(0.9459,0,0,1,1051.1319,-330.17143)"
       gradientUnits="userSpaceOnUse"
       id="XMLID_25_"
       r="81.971497"
       cy="0.75440001"
       cx="66.136703"><stop
         id="stop95"
         offset="0.1302"
         style="stop-color:#ffffff;stop-opacity:1" /><stop
         id="stop97"
         offset="0.5"
         style="stop-color:#ffffff;stop-opacity:0.16862746" /></radialGradient><filter
       id="filter4446"
       height="1.1148686"
       y="-0.057434313"
       width="1.5844299"
       x="-0.29221493"><feGaussianBlur
         id="feGaussianBlur4448"
         stdDeviation="2.4087233"
         collect="always" /></filter><filter
       id="filter4442"
       height="1.1148686"
       y="-0.057434313"
       width="1.5844299"
       x="-0.29221493"><feGaussianBlur
         id="feGaussianBlur4444"
         stdDeviation="2.4087233"
         collect="always" /></filter><linearGradient
       gradientUnits="userSpaceOnUse"
       id="XMLID_23_"
       y2="120.3999"
       x2="115.9771"
       y1="72.399902"
       x1="115.9771"><stop
         id="stop79"
         offset="0"
         style="stop-color:#00316e;stop-opacity:0" /><stop
         id="stop81"
         offset="1"
         style="stop-color:#00316e;stop-opacity:1" /></linearGradient><clipPath
       id="clipPath4458"><path
         inkscape:connector-curvature="0"
         d="m 69.626,12.145 h -0.052 c -22.727,-0.292 -46.472,4.077 -46.709,4.122 -2.424,0.451 -4.946,2.974 -5.397,5.397 -0.044,0.237 -4.414,23.983 -4.122,46.71 -0.292,22.777 4.078,46.523 4.122,46.761 0.451,2.423 2.974,4.945 5.398,5.398 0.237,0.044 23.982,4.413 46.709,4.121 22.779,0.292 46.524,-4.077 46.761,-4.121 2.423,-0.452 4.946,-2.976 5.398,-5.399 0.044,-0.236 4.413,-23.981 4.121,-46.709 0.292,-22.777 -4.077,-46.523 -4.121,-46.761 -0.453,-2.423 -2.976,-4.946 -5.398,-5.397 -0.238,-0.045 -23.984,-4.414 -46.71,-4.122 z"
         id="use4460" /></clipPath><filter
       id="AI_Sfocatura_4"><feGaussianBlur
         id="feGaussianBlur6"
         stdDeviation="4" /></filter><radialGradient
       gradientTransform="translate(1047.3429,-330.17143)"
       gradientUnits="userSpaceOnUse"
       id="XMLID_21_"
       r="141"
       cy="145.3999"
       cx="69.600098"><stop
         id="stop58"
         offset="0.3373"
         style="stop-color:#2c72c7;stop-opacity:0" /><stop
         id="stop60"
         offset="0.57990003"
         style="stop-color:#2c72c7;stop-opacity:1" /><stop
         id="stop62"
         offset="1"
         style="stop-color:#2c72c7;stop-opacity:0" /></radialGradient><radialGradient
       gradientTransform="translate(1047.3429,-330.17143)"
       gradientUnits="userSpaceOnUse"
       id="XMLID_20_"
       r="85"
       cy="68.399902"
       cx="69.600098"><stop
         id="stop47"
         offset="0.5"
         style="stop-color:#6193ff;stop-opacity:1" /><stop
         id="stop49"
         offset="0.78109998"
         style="stop-color:#003685;stop-opacity:1" /><stop
         id="stop51"
         offset="1"
         style="stop-color:#709dff;stop-opacity:1" /></radialGradient><linearGradient
       gradientTransform="rotate(-180,593.2718,-96.685728)"
       gradientUnits="userSpaceOnUse"
       id="XMLID_18_"
       y2="68.399902"
       x2="129.6001"
       y1="68.399902"
       x1="9.5995998"><stop
         id="stop13"
         offset="0"
         style="stop-color:#003685;stop-opacity:1" /><stop
         id="stop15"
         offset="0.0105"
         style="stop-color:#083c8f;stop-opacity:1" /><stop
         id="stop17"
         offset="0.0533"
         style="stop-color:#2451b1;stop-opacity:1" /><stop
         id="stop19"
         offset="0.099"
         style="stop-color:#3b63cd;stop-opacity:1" /><stop
         id="stop21"
         offset="0.1477"
         style="stop-color:#4d71e3;stop-opacity:1" /><stop
         id="stop23"
         offset="0.20100001"
         style="stop-color:#597bf3;stop-opacity:1" /><stop
         id="stop25"
         offset="0.2622"
         style="stop-color:#6180fc;stop-opacity:1" /><stop
         id="stop27"
         offset="0.34909999"
         style="stop-color:#6382ff;stop-opacity:1" /><stop
         id="stop31"
         offset="0.58579999"
         style="stop-color:#6382ff;stop-opacity:1" /><stop
         id="stop33"
         offset="1"
         style="stop-color:#003685;stop-opacity:1" /></linearGradient><filter
       id="filter2904"><feGaussianBlur
         id="feGaussianBlur2906"
         stdDeviation="2.32"
         collect="always" /></filter><linearGradient
       gradientTransform="rotate(-180,66.800351,66.199999)"
       gradientUnits="userSpaceOnUse"
       xlink:href="#XMLID_18_"
       id="linearGradient2235"
       y2="68.399902"
       x2="129.6001"
       y1="68.399902"
       x1="9.5995998" /><radialGradient
       gradientTransform="matrix(0.9824561,0,0,0.9824561,-4.3789474,-3.2)"
       gradientUnits="userSpaceOnUse"
       xlink:href="#XMLID_20_"
       id="radialGradient2237"
       r="85"
       cy="68.399902"
       cx="69.600098" /><radialGradient
       gradientTransform="translate(-5.5999998,-4.4)"
       gradientUnits="userSpaceOnUse"
       xlink:href="#XMLID_21_"
       id="radialGradient2239"
       r="141"
       cy="145.3999"
       cx="69.600098" /><linearGradient
       gradientUnits="userSpaceOnUse"
       xlink:href="#XMLID_23_"
       id="linearGradient2241"
       y2="102.0937"
       x2="115.9771"
       y1="72.341148"
       x1="108.00493" /><radialGradient
       gradientTransform="matrix(0.4136693,-0.5587442,-0.4989925,-0.3694316,79.652783,167.07706)"
       gradientUnits="userSpaceOnUse"
       xlink:href="#XMLID_27_"
       id="radialGradient2247"
       fy="123.17536"
       fx="110.74259"
       r="81.292717"
       cy="123.17536"
       cx="110.74259" /><linearGradient
       gradientTransform="translate(0,2)"
       gradientUnits="userSpaceOnUse"
       xlink:href="#XMLID_25_"
       id="linearGradient2802"
       y2="78.850853"
       x2="67.629204"
       y1="-2.1941743"
       x1="67.629204" /><radialGradient
       r="81.292717"
       fy="134.20537"
       fx="79.082962"
       cy="134.20537"
       cx="79.082962"
       gradientTransform="matrix(0.4136693,-0.5587442,-0.4989925,-0.3694316,79.652783,167.07706)"
       gradientUnits="userSpaceOnUse"
       id="radialGradient3051"
       xlink:href="#XMLID_27_"
       inkscape:collect="always" /><radialGradient
       r="81.292717"
       fy="134.20537"
       fx="79.082962"
       cy="134.20537"
       cx="79.082962"
       gradientTransform="matrix(0.4136693,-0.5587442,-0.4989925,-0.3694316,79.652783,167.07706)"
       gradientUnits="userSpaceOnUse"
       id="radialGradient3051-6"
       xlink:href="#XMLID_27_-7"
       inkscape:collect="always" /><radialGradient
       gradientTransform="matrix(0.9397,0,0,0.9397,4.2153,4.1331)"
       gradientUnits="userSpaceOnUse"
       id="XMLID_27_-7"
       r="66.164497"
       cy="58.0625"
       cx="76.764198"><stop
         id="stop107-5"
         offset="0"
         style="stop-color:#ffffff;stop-opacity:1" /><stop
         id="stop109-2"
         offset="0.32780001"
         style="stop-color:#fdfdfc;stop-opacity:1" /><stop
         id="stop111-2"
         offset="0.6773591"
         style="stop-color:#f4f5f4;stop-opacity:1" /><stop
         id="stop113-7"
         offset="1"
         style="stop-color:#cacfd0;stop-opacity:1" /></radialGradient></defs><sodipodi:namedview
     pagecolor="#ffffff"
     bordercolor="#666666"
     borderopacity="1"
     objecttolerance="10"
     gridtolerance="10"
     guidetolerance="10"
     inkscape:pageopacity="0"
     inkscape:pageshadow="2"
     inkscape:window-width="1920"
     inkscape:window-height="1018"
     id="namedview329"
     showgrid="false"
     inkscape:zoom="2.5640415"
     inkscape:cx="76.364306"
     inkscape:cy="134.02727"
     inkscape:window-x="0"
     inkscape:window-y="36"
     inkscape:window-maximized="1"
     inkscape:current-layer="Camada_1"
     units="mm"
     width="50mm" /><style
     type="text/css"
     id="style10">
	.st0{fill:#3FA0D4;}
	.st1{fill:#5B5B5F;}
	.st2{fill:#ADADAD;}
	.st3{fill:#333333;}
	.st4{fill:#FFFFFF;}
	.st5{fill:#1F4190;}
	.st6{fill:#444242;}
	.st7{fill:#363636;}
	.st8{fill:#1A1A1A;}
</style><g
     id="g68"
     transform="translate(-46.861813,-60.695669)"><path
       class="st5"
       d="m 82.5,98.1 v 32.4 h -9.2 v -4.6 c -2.3,3.2 -5.8,5 -10.2,5 -9.2,0 -15.3,-6.7 -15.3,-16.7 0,-9.8 6,-16.4 15,-16.5 4.6,0 8.1,1.8 10.5,5.1 v -4.7 z m -9.3,17.5 v -2.2 c -0.5,-4.7 -3.6,-7.9 -8,-7.9 -4.8,0 -8.1,3.7 -8.2,9 0.1,5.3 3.3,9 8.2,9 4.4,0 7.6,-3.2 8,-7.9 z"
       id="path14"
       inkscape:connector-curvature="0"
       style="fill:#1f4190" /><path
       class="st5"
       d="m 105.7,128.8 c -2.4,1.4 -5.4,2.2 -8.3,2.2 -6,0 -10.4,-3.8 -10.4,-10.7 V 90.7 h 9.2 v 8.9 h 8.9 v 6.5 h -8.9 v 12.7 c 0,3.1 1.2,4.5 3.3,4.5 1.1,0 2.6,-0.4 4.2,-1.2 z"
       id="path16"
       inkscape:connector-curvature="0"
       style="fill:#1f4190" /><path
       class="st5"
       d="m 154.4,122.7 c 1,0 2,-0.4 3.1,-0.9 l 0.9,7.7 c -2.1,1 -4.2,1.4 -6.2,1.4 -5.4,0 -10,-3.6 -10,-11.2 v -34 h 9.2 v 33.4 c 0.1,2.6 1.3,3.6 3,3.6 z"
       id="path18"
       inkscape:connector-curvature="0"
       style="fill:#1f4190" /><path
       class="st5"
       d="m 172.1,98.1 v 32.4 h -9.3 V 98.1 Z"
       id="path20"
       inkscape:connector-curvature="0"
       style="fill:#1f4190" /><path
       class="st5"
       d="m 204,117.3 6.2,3.6 c -2.8,5.1 -7.1,8.3 -12.9,9.5 -10.1,2.1 -18.2,-3 -20.2,-12.7 -2,-9.6 3,-17.5 12.9,-19.6 9.2,-2 16.4,2.4 18.7,11.4 l -20.8,10.4 c 2,2.8 5.1,4.1 8.6,3.3 3,-0.7 5.6,-2.7 7.5,-5.9 z m -18.2,-2.7 13.1,-6.7 c -1.6,-2.9 -4.1,-3.8 -7.2,-3.2 -4.4,1 -6.7,4.5 -5.9,9.9 z"
       id="path22"
       inkscape:connector-curvature="0"
       style="fill:#1f4190" /><path
       class="st5"
       d="m 134.3,117.3 6.2,3.6 c -2.8,5.1 -7.1,8.3 -12.9,9.5 -10.1,2.1 -18.2,-3 -20.2,-12.7 -2,-9.6 3,-17.5 12.9,-19.6 9.2,-2 16.4,2.4 18.7,11.4 l -20.8,10.4 c 2,2.8 5.1,4.1 8.6,3.3 2.9,-0.7 5.6,-2.7 7.5,-5.9 z m -18.2,-2.7 13.1,-6.7 c -1.6,-2.9 -4.1,-3.8 -7.2,-3.2 -4.4,1 -6.7,4.5 -5.9,9.9 z"
       id="path24"
       inkscape:connector-curvature="0"
       style="fill:#1f4190" /><path
       class="st5"
       d="m 235,97.8 v 8.7 c -6.6,-0.6 -10.7,3 -10.7,8.4 v 15.6 H 215 V 98.1 h 9.3 v 5.8 c 2.2,-3.9 5.9,-6.1 10.7,-6.1 z"
       id="path26"
       inkscape:connector-curvature="0"
       style="fill:#1f4190" /><g
       id="g52"><g
         id="g50"><path
           class="st5"
           d="m 152.8,142.2 c 0,2.7 -1.6,4.5 -4.1,4.5 -1.1,0 -2.1,-0.4 -2.7,-1.2 v 4.3 h -2.9 v -12.1 h 2.9 v 1.2 c 0.6,-0.8 1.5,-1.2 2.6,-1.2 2.6,-0.1 4.2,1.7 4.2,4.5 z m -2.9,-0.1 c 0,-1.3 -0.8,-2.2 -1.9,-2.2 -1.1,0 -1.9,0.9 -1.9,2.2 0,1.3 0.8,2.2 1.9,2.2 1.1,0 1.9,-0.9 1.9,-2.2 z"
           id="path28"
           inkscape:connector-curvature="0"
           style="fill:#1f4190" /><path
           class="st5"
           d="m 160.1,137.6 v 2.7 c -1.6,-0.2 -2.7,0.6 -2.9,1.8 v 4.5 h -2.9 v -8.9 h 2.9 v 1.5 c 0.7,-1 1.7,-1.6 2.9,-1.6 z"
           id="path30"
           inkscape:connector-curvature="0"
           style="fill:#1f4190" /><path
           class="st5"
           d="m 164.3,137.7 v 8.9 h -2.9 v -8.9 z"
           id="path32"
           inkscape:connector-curvature="0"
           style="fill:#1f4190" /><path
           class="st5"
           d="m 175.6,141 v 5.6 h -2.9 v -4.8 c 0,-1 -0.6,-1.6 -1.5,-1.6 -1,0 -1.6,0.7 -1.7,1.7 v 4.7 h -2.9 v -8.9 h 2.9 v 1.4 c 0.6,-1 1.6,-1.6 2.9,-1.6 2,0.1 3.2,1.4 3.2,3.5 z"
           id="path34"
           inkscape:connector-curvature="0"
           style="fill:#1f4190" /><path
           class="st5"
           d="m 182.8,146.1 c -0.6,0.4 -1.5,0.6 -2.4,0.6 -1.8,0 -3,-1.1 -3,-3 v -8.1 h 2.9 v 2.5 h 2.3 v 1.9 h -2.3 v 3.2 c 0,0.7 0.3,1.1 0.8,1.1 0.3,0 0.7,-0.1 1.1,-0.3 z"
           id="path36"
           inkscape:connector-curvature="0"
           style="fill:#1f4190" /><path
           class="st5"
           d="m 190.7,143.4 1.6,1.5 c -1,1.2 -2.4,1.8 -4.1,1.8 -2.9,0 -4.8,-1.8 -4.8,-4.5 0,-2.7 1.8,-4.6 4.6,-4.6 2.7,0 4.4,1.6 4.5,4.2 l -5.9,1.4 c 0.3,0.8 1,1.2 1.8,1.2 0.8,0.1 1.6,-0.3 2.3,-1 z m -4.3,-1.7 3.3,-0.8 c -0.2,-0.8 -0.8,-1.2 -1.5,-1.2 -1,0 -1.7,0.7 -1.8,2 z"
           id="path38"
           inkscape:connector-curvature="0"
           style="fill:#1f4190" /><path
           class="st5"
           d="m 199.7,137.6 v 2.7 c -1.6,-0.2 -2.7,0.6 -2.9,1.8 v 4.5 H 194 v -8.9 h 2.9 v 1.5 c 0.6,-1 1.6,-1.6 2.8,-1.6 z"
           id="path40"
           inkscape:connector-curvature="0"
           style="fill:#1f4190" /><path
           class="st5"
           d="m 209.5,141.3 v 5.3 h -1.3 v -5 c 0,-1.5 -0.9,-2.5 -2.4,-2.5 -1.8,0 -2.9,1.3 -2.9,3.2 v 4.2 h -1.3 v -12.2 h 1.3 v 5.5 c 0.6,-1.3 1.8,-2 3.4,-2 2,0.1 3.2,1.4 3.2,3.5 z"
           id="path42"
           inkscape:connector-curvature="0"
           style="fill:#1f4190" /><path
           class="st5"
           d="m 220.3,142.3 c 0,2.6 -1.8,4.4 -4.4,4.4 -2.6,0 -4.4,-1.8 -4.4,-4.4 0,-2.6 1.8,-4.4 4.4,-4.4 2.5,0 4.4,1.8 4.4,4.4 z m -7.5,0 c 0,1.9 1.3,3.3 3.1,3.3 1.8,0 3.1,-1.3 3.1,-3.3 0,-1.9 -1.3,-3.2 -3.1,-3.2 -1.8,-0.1 -3.1,1.3 -3.1,3.2 z"
           id="path44"
           inkscape:connector-curvature="0"
           style="fill:#1f4190" /><path
           class="st5"
           d="m 224.7,139 c -1,0 -1.7,0.3 -1.7,1.2 0,2 4.8,1 4.8,4.1 0,1.7 -1.5,2.4 -3.2,2.4 -1.2,0 -2.5,-0.4 -3.3,-1.2 l 0.5,-0.9 c 0.7,0.7 1.9,1.1 2.9,1.1 1,0 1.8,-0.4 1.9,-1.3 0,-2.1 -4.8,-1 -4.8,-4.1 0,-1.6 1.4,-2.4 3,-2.4 1,0 2,0.3 2.8,0.8 l -0.5,1 c -0.7,-0.5 -1.6,-0.7 -2.4,-0.7 z"
           id="path46"
           inkscape:connector-curvature="0"
           style="fill:#1f4190" /><path
           class="st5"
           d="m 233.9,146 c -0.6,0.4 -1.3,0.6 -1.9,0.6 -1.3,0 -2.2,-0.9 -2.2,-2.8 v -7.9 h 1.3 v 2.3 h 2.7 v 1 H 231 v 4.4 c 0,1.2 0.4,1.8 1.2,1.8 0.4,0 0.9,-0.2 1.4,-0.4 z"
           id="path48"
           inkscape:connector-curvature="0"
           style="fill:#1f4190" /></g></g><rect
       x="47.700001"
       y="64.800003"
       class="st6"
       width="187.3"
       height="4"
       id="rect54"
       style="fill:#444242" /><rect
       x="47.700001"
       y="139.8"
       class="st6"
       width="86.400002"
       height="4"
       id="rect56"
       style="fill:#444242" /><path
       class="st5"
       d="m 170.7,89 c 0,-2.7 -1.3,-4.8 -2.8,-4.8 -1.5,0 -2.8,2.2 -2.8,4.8 0,0.9 0.1,2.1 0.7,2.9 0.7,1 1.4,2 2.1,3 0,-0.1 0.6,-0.8 0.6,-0.8 0.1,-0.2 0.3,-0.4 0.4,-0.6 l 0.1,-0.2 c 0.5,-0.6 1.1,-1.3 1.3,-2 0.3,-0.8 0.4,-1.5 0.4,-2.3 z"
       id="path58"
       inkscape:connector-curvature="0"
       style="fill:#1f4190" /><path
       class="st6"
       d="m 158.4,70.8 h -0.7 c -1.4,0 -2.5,1.1 -2.5,2.5 0,1.4 1.1,2.5 2.5,2.5 h 0.7 z"
       id="path60"
       inkscape:connector-curvature="0"
       style="fill:#444242" /><path
       class="st6"
       d="m 177.3,75.7 h 0.7 c 1.4,0 2.5,-1.1 2.5,-2.5 0,-1.4 -1.1,-2.5 -2.5,-2.5 h -0.7 z"
       id="path62"
       inkscape:connector-curvature="0"
       style="fill:#444242" /><rect
       x="160.3"
       y="62.299999"
       class="st6"
       width="15.2"
       height="20.6"
       id="rect64"
       style="fill:#444242" /><rect
       x="164.10001"
       y="82.300003"
       class="st6"
       width="7.5999999"
       height="6"
       id="rect66"
       style="fill:#444242" /></g></svg>